//New ones

WHITE TO BLACK:
ffffff
255 255 255

c3c3c3
R:195 G:195 B:195

7c7c7c
R:124 G:124 B:124


GREEN:
4f8c6c
R:79 G:140 B: 108

345a42
R: 52 G:90 B:66

1b3524
R:27 G:53 B:36

BLUE:
5fd2cf
R:95 G:210 B:207

51aba9
R:81 G:171 B: 169

2c8381
R:44 G:131 B:129




// Old ones
#222D3F
#4F8C6C
#335941
#77A756
#99BE7F